\relax 
\providecommand\hyper@newdestlabel[2]{}
\providecommand{\transparent@use}[1]{}
\@writefile{toc}{\defcounter {refsection}{0}\relax }\@writefile{toc}{\contentsline {chapter}{\numberline {1}Introducci\IeC {\'o}n}{1}{chapter.1}}
\@writefile{lof}{\defcounter {refsection}{0}\relax }\@writefile{lof}{\addvspace {10\p@ }}
\@writefile{lot}{\defcounter {refsection}{0}\relax }\@writefile{lot}{\addvspace {10\p@ }}
\@writefile{loa}{\defcounter {refsection}{0}\relax }\@writefile{loa}{\addvspace {10\p@ }}
\newlabel{cap:Introduccion}{{1}{1}{Introducción}{chapter.1}{}}
\@writefile{toc}{\defcounter {refsection}{0}\relax }\@writefile{toc}{\contentsline {section}{\numberline {1.1}Contexto}{1}{section.1.1}}
\@writefile{toc}{\defcounter {refsection}{0}\relax }\@writefile{toc}{\contentsline {section}{\numberline {1.2}Problema}{2}{section.1.2}}
\newlabel{sec:pro}{{1.2}{2}{Problema}{section.1.2}{}}
\@writefile{lof}{\defcounter {refsection}{0}\relax }\@writefile{lof}{\contentsline {figure}{\numberline {1.1}{\ignorespaces Ejemplo clasificaci\IeC {\'o}n multiclase}}{2}{figure.caption.13}}
\providecommand*\caption@xref[2]{\@setref\relax\@undefined{#1}}
\newlabel{fig:mc}{{1.1}{2}{Ejemplo clasificación multiclase}{figure.caption.13}{}}
\newlabel{eq1}{{1.1}{2}{Problema}{equation.1.2.1}{}}
\newlabel{eq2}{{1.2}{2}{Problema}{equation.1.2.2}{}}
\newlabel{eq3}{{1.3}{2}{Problema}{equation.1.2.3}{}}
\newlabel{eq4}{{1.4}{3}{Problema}{equation.1.2.4}{}}
\@writefile{lof}{\defcounter {refsection}{0}\relax }\@writefile{lof}{\contentsline {figure}{\numberline {1.2}{\ignorespaces Diagrama de flujo para la digitalizaci\IeC {\'o}n}}{3}{figure.caption.14}}
\newlabel{fig:ocr}{{1.2}{3}{Diagrama de flujo para la digitalización}{figure.caption.14}{}}
\@writefile{toc}{\defcounter {refsection}{0}\relax }\@writefile{toc}{\contentsline {section}{\numberline {1.3}Estado del arte}{4}{section.1.3}}
\newlabel{sec:art}{{1.3}{4}{Estado del arte}{section.1.3}{}}
\@writefile{toc}{\defcounter {refsection}{0}\relax }\@writefile{toc}{\contentsline {subsection}{\numberline {1.3.1}Historia de la clasificaci\IeC {\'o}n}{4}{subsection.1.3.1}}
\@writefile{toc}{\defcounter {refsection}{0}\relax }\@writefile{toc}{\contentsline {subsection}{\numberline {1.3.2}Representaci\IeC {\'o}n matem\IeC {\'a}tica}{4}{subsection.1.3.2}}
\newlabel{eqtf}{{1.5}{5}{Representación matemática}{equation.1.3.5}{}}
\@writefile{toc}{\defcounter {refsection}{0}\relax }\@writefile{toc}{\contentsline {subsubsection}{Funciones de distancia}{5}{section*.15}}
\newlabel{eqcos}{{1.6}{5}{Funciones de distancia}{equation.1.3.6}{}}
\newlabel{ecocossuav}{{1.7}{5}{Funciones de distancia}{equation.1.3.7}{}}
\@writefile{toc}{\defcounter {refsection}{0}\relax }\@writefile{toc}{\contentsline {subsubsection}{Bag of Words}{6}{section*.16}}
\@writefile{toc}{\defcounter {refsection}{0}\relax }\@writefile{toc}{\contentsline {subsection}{\numberline {1.3.3}Modelos estad\IeC {\'\i }sticos cl\IeC {\'a}sicos}{6}{subsection.1.3.3}}
\@writefile{toc}{\defcounter {refsection}{0}\relax }\@writefile{toc}{\contentsline {subsubsection}{Modelos probabil\IeC {\'\i }sticos}{7}{section*.17}}
\@writefile{toc}{\defcounter {refsection}{0}\relax }\@writefile{toc}{\contentsline {subsubsection}{Algoritmo del vecino m\IeC {\'a}s proximo}{7}{section*.18}}
\@writefile{toc}{\defcounter {refsection}{0}\relax }\@writefile{toc}{\contentsline {subsection}{\numberline {1.3.4}Aprendizaje autom\IeC {\'a}tico}{7}{subsection.1.3.4}}
\@writefile{toc}{\defcounter {refsection}{0}\relax }\@writefile{toc}{\contentsline {subsubsection}{Regresi\IeC {\'o}n lineal}{8}{section*.19}}
\@writefile{lof}{\defcounter {refsection}{0}\relax }\@writefile{lof}{\contentsline {figure}{\numberline {1.3}{\ignorespaces Ejemplo regresi\IeC {\'o}n lineal}}{8}{figure.caption.20}}
\newlabel{fig:reglin}{{1.3}{8}{Ejemplo regresión lineal}{figure.caption.20}{}}
\newlabel{reglin}{{1.8}{8}{Regresión lineal}{equation.1.3.8}{}}
\newlabel{matreg}{{1.9}{8}{Regresión lineal}{equation.1.3.9}{}}
\newlabel{mincua}{{1.10}{8}{Regresión lineal}{equation.1.3.10}{}}
\@writefile{toc}{\defcounter {refsection}{0}\relax }\@writefile{toc}{\contentsline {subsection}{\numberline {1.3.5}Aprendizaje profundo}{9}{subsection.1.3.5}}
\@writefile{toc}{\defcounter {refsection}{0}\relax }\@writefile{toc}{\contentsline {subsubsection}{Word embeddings}{9}{section*.21}}
\newlabel{sec:words}{{1.3.5}{9}{Word embeddings}{section*.21}{}}
\@writefile{lof}{\defcounter {refsection}{0}\relax }\@writefile{lof}{\contentsline {figure}{\numberline {1.4}{\ignorespaces Representaci\IeC {\'o}n de documentos con GloVe}}{9}{figure.caption.22}}
\newlabel{fig:glove}{{1.4}{9}{Representación de documentos con GloVe}{figure.caption.22}{}}
\@writefile{toc}{\defcounter {refsection}{0}\relax }\@writefile{toc}{\contentsline {subsection}{\numberline {1.3.6}Redes neuronales artificiales}{10}{subsection.1.3.6}}
\@writefile{toc}{\defcounter {refsection}{0}\relax }\@writefile{toc}{\contentsline {subsubsection}{Perceptr\IeC {\'o}n simple}{10}{section*.23}}
\@writefile{lof}{\defcounter {refsection}{0}\relax }\@writefile{lof}{\contentsline {figure}{\numberline {1.5}{\ignorespaces Perceptr\IeC {\'o}n simple}}{10}{figure.caption.24}}
\newlabel{fig:perceptron}{{1.5}{10}{Perceptrón simple}{figure.caption.24}{}}
\@writefile{toc}{\defcounter {refsection}{0}\relax }\@writefile{toc}{\contentsline {subsubsection}{Perceptr\IeC {\'o}n multicapa}{11}{section*.25}}
\@writefile{lof}{\defcounter {refsection}{0}\relax }\@writefile{lof}{\contentsline {figure}{\numberline {1.6}{\ignorespaces Red neuronal artificial}}{11}{figure.caption.26}}
\newlabel{fig:redneuronal}{{1.6}{11}{Red neuronal artificial}{figure.caption.26}{}}
\@writefile{toc}{\defcounter {refsection}{0}\relax }\@writefile{toc}{\contentsline {subsection}{\numberline {1.3.7}Redes neuronales convolucionales}{12}{subsection.1.3.7}}
\@writefile{lof}{\defcounter {refsection}{0}\relax }\@writefile{lof}{\contentsline {figure}{\numberline {1.7}{\ignorespaces Ejemplo de convoluci\IeC {\'o}n}}{12}{figure.caption.27}}
\newlabel{fig:convs}{{1.7}{12}{Ejemplo de convolución}{figure.caption.27}{}}
\@writefile{lof}{\defcounter {refsection}{0}\relax }\@writefile{lof}{\contentsline {figure}{\numberline {1.8}{\ignorespaces Ejemplo de pooling}}{12}{figure.caption.28}}
\newlabel{fig:pool}{{1.8}{12}{Ejemplo de pooling}{figure.caption.28}{}}
\@writefile{lof}{\defcounter {refsection}{0}\relax }\@writefile{lof}{\contentsline {figure}{\numberline {1.9}{\ignorespaces Red neuronal convolucional}}{13}{figure.caption.29}}
\newlabel{fig:redconv}{{1.9}{13}{Red neuronal convolucional}{figure.caption.29}{}}
\@writefile{toc}{\defcounter {refsection}{0}\relax }\@writefile{toc}{\contentsline {subsection}{\numberline {1.3.8}Redes neuronales recurrentes}{14}{subsection.1.3.8}}
\@writefile{lof}{\defcounter {refsection}{0}\relax }\@writefile{lof}{\contentsline {figure}{\numberline {1.10}{\ignorespaces Red neuronal recurrente simple}}{14}{figure.caption.30}}
\newlabel{fig:redrec}{{1.10}{14}{Red neuronal recurrente simple}{figure.caption.30}{}}
\@writefile{toc}{\defcounter {refsection}{0}\relax }\@writefile{toc}{\contentsline {subsubsection}{Redes neuronales LSTM}{14}{section*.31}}
\newlabel{sec:lstm}{{1.3.8}{14}{Redes neuronales LSTM}{section*.31}{}}
\@writefile{lof}{\defcounter {refsection}{0}\relax }\@writefile{lof}{\contentsline {figure}{\numberline {1.11}{\ignorespaces Neurona LSTM}}{15}{figure.caption.32}}
\newlabel{fig:redlstm}{{1.11}{15}{Neurona LSTM}{figure.caption.32}{}}
\@writefile{toc}{\defcounter {refsection}{0}\relax }\@writefile{toc}{\contentsline {subsection}{\numberline {1.3.9}Otras arquitecturas}{16}{subsection.1.3.9}}
\@writefile{toc}{\defcounter {refsection}{0}\relax }\@writefile{toc}{\contentsline {subsubsection}{ELMO}{16}{section*.33}}
\@writefile{toc}{\defcounter {refsection}{0}\relax }\@writefile{toc}{\contentsline {subsubsection}{BERT}{16}{section*.34}}
\@setckpt{./Introduccion}{
\setcounter{page}{17}
\setcounter{equation}{10}
\setcounter{enumi}{3}
\setcounter{enumii}{0}
\setcounter{enumiii}{0}
\setcounter{enumiv}{0}
\setcounter{footnote}{18}
\setcounter{mpfootnote}{0}
\setcounter{part}{0}
\setcounter{chapter}{1}
\setcounter{section}{3}
\setcounter{subsection}{9}
\setcounter{subsubsection}{0}
\setcounter{paragraph}{0}
\setcounter{subparagraph}{0}
\setcounter{figure}{11}
\setcounter{table}{0}
\setcounter{parentequation}{0}
\setcounter{Item}{3}
\setcounter{Hfootnote}{18}
\setcounter{bookmark@seq@number}{20}
\setcounter{AM@survey}{0}
\setcounter{svg@param@lastpage}{0}
\setcounter{svg@param@currpage}{-1}
\setcounter{subfigure}{0}
\setcounter{lofdepth}{1}
\setcounter{subtable}{0}
\setcounter{lotdepth}{1}
\setcounter{r@tfl@t}{0}
\setcounter{lstnumber}{1}
\setcounter{AlgoLine}{0}
\setcounter{algocfline}{0}
\setcounter{algocfproc}{0}
\setcounter{algocf}{0}
\setcounter{ContinuedFloat}{0}
\setcounter{tabx@nest}{0}
\setcounter{listtotal}{0}
\setcounter{listcount}{0}
\setcounter{liststart}{0}
\setcounter{liststop}{0}
\setcounter{citecount}{0}
\setcounter{citetotal}{0}
\setcounter{multicitecount}{0}
\setcounter{multicitetotal}{0}
\setcounter{instcount}{62}
\setcounter{maxnames}{3}
\setcounter{minnames}{1}
\setcounter{maxitems}{3}
\setcounter{minitems}{1}
\setcounter{citecounter}{0}
\setcounter{savedcitecounter}{0}
\setcounter{uniquelist}{0}
\setcounter{uniquename}{0}
\setcounter{refsection}{0}
\setcounter{refsegment}{0}
\setcounter{maxextratitle}{0}
\setcounter{maxextratitleyear}{0}
\setcounter{maxextradate}{0}
\setcounter{maxextraalpha}{0}
\setcounter{abbrvpenalty}{50}
\setcounter{highnamepenalty}{50}
\setcounter{lownamepenalty}{25}
\setcounter{maxparens}{3}
\setcounter{parenlevel}{0}
\setcounter{mincomprange}{10}
\setcounter{maxcomprange}{100000}
\setcounter{mincompwidth}{1}
\setcounter{afterword}{0}
\setcounter{savedafterword}{0}
\setcounter{annotator}{0}
\setcounter{savedannotator}{0}
\setcounter{author}{0}
\setcounter{savedauthor}{0}
\setcounter{bookauthor}{0}
\setcounter{savedbookauthor}{0}
\setcounter{commentator}{0}
\setcounter{savedcommentator}{0}
\setcounter{editor}{0}
\setcounter{savededitor}{0}
\setcounter{editora}{0}
\setcounter{savededitora}{0}
\setcounter{editorb}{0}
\setcounter{savededitorb}{0}
\setcounter{editorc}{0}
\setcounter{savededitorc}{0}
\setcounter{foreword}{0}
\setcounter{savedforeword}{0}
\setcounter{holder}{0}
\setcounter{savedholder}{0}
\setcounter{introduction}{0}
\setcounter{savedintroduction}{0}
\setcounter{namea}{0}
\setcounter{savednamea}{0}
\setcounter{nameb}{0}
\setcounter{savednameb}{0}
\setcounter{namec}{0}
\setcounter{savednamec}{0}
\setcounter{translator}{0}
\setcounter{savedtranslator}{0}
\setcounter{shortauthor}{0}
\setcounter{savedshortauthor}{0}
\setcounter{shorteditor}{0}
\setcounter{savedshorteditor}{0}
\setcounter{labelname}{0}
\setcounter{savedlabelname}{0}
\setcounter{institution}{0}
\setcounter{savedinstitution}{0}
\setcounter{lista}{0}
\setcounter{savedlista}{0}
\setcounter{listb}{0}
\setcounter{savedlistb}{0}
\setcounter{listc}{0}
\setcounter{savedlistc}{0}
\setcounter{listd}{0}
\setcounter{savedlistd}{0}
\setcounter{liste}{0}
\setcounter{savedliste}{0}
\setcounter{listf}{0}
\setcounter{savedlistf}{0}
\setcounter{location}{0}
\setcounter{savedlocation}{0}
\setcounter{organization}{0}
\setcounter{savedorganization}{0}
\setcounter{origlocation}{0}
\setcounter{savedoriglocation}{0}
\setcounter{origpublisher}{0}
\setcounter{savedorigpublisher}{0}
\setcounter{publisher}{0}
\setcounter{savedpublisher}{0}
\setcounter{language}{0}
\setcounter{savedlanguage}{0}
\setcounter{origlanguage}{0}
\setcounter{savedoriglanguage}{0}
\setcounter{pageref}{0}
\setcounter{savedpageref}{0}
\setcounter{textcitecount}{0}
\setcounter{textcitetotal}{0}
\setcounter{textcitemaxnames}{0}
\setcounter{biburlnumpenalty}{0}
\setcounter{biburlucpenalty}{0}
\setcounter{biburllcpenalty}{0}
\setcounter{smartand}{1}
\setcounter{bbx:relatedcount}{0}
\setcounter{bbx:relatedtotal}{0}
\setcounter{cbx@tempcnta}{0}
\setcounter{cbx@tempcntb}{11}
\setcounter{tw@hyphen@char@num}{0}
\setcounter{section@level}{3}
\setcounter{lstlisting}{0}
\setcounter{totpages}{24}
}
