\relax 
\providecommand\hyper@newdestlabel[2]{}
\providecommand{\transparent@use}[1]{}
\@writefile{toc}{\defcounter {refsection}{0}\relax }\@writefile{toc}{\contentsline {chapter}{\numberline {4}Resultados}{27}{chapter.4}}
\@writefile{lof}{\defcounter {refsection}{0}\relax }\@writefile{lof}{\addvspace {10\p@ }}
\@writefile{lot}{\defcounter {refsection}{0}\relax }\@writefile{lot}{\addvspace {10\p@ }}
\@writefile{loa}{\defcounter {refsection}{0}\relax }\@writefile{loa}{\addvspace {10\p@ }}
\newlabel{cap:Resultados}{{4}{27}{Resultados}{chapter.4}{}}
\@writefile{toc}{\defcounter {refsection}{0}\relax }\@writefile{toc}{\contentsline {section}{\numberline {4.1}Sprint 1}{27}{section.4.1}}
\@writefile{lot}{\defcounter {refsection}{0}\relax }\@writefile{lot}{\contentsline {table}{\numberline {4.1}{\ignorespaces Tabla planificaci\IeC {\'o}n Sprint 1\relax }}{27}{table.caption.43}}
\newlabel{tab:plan_sprint1}{{4.1}{27}{Tabla planificación Sprint 1\relax }{table.caption.43}{}}
\@writefile{toc}{\defcounter {refsection}{0}\relax }\@writefile{toc}{\contentsline {subsection}{\numberline {4.1.1}T1. Estudio e investigaci\IeC {\'o}n del estado del arte en el problema}{28}{subsection.4.1.1}}
\@writefile{toc}{\defcounter {refsection}{0}\relax }\@writefile{toc}{\contentsline {subsection}{\numberline {4.1.2}T2. Dise\IeC {\~n}o del clasificador autom\IeC {\'a}tico y sistema general}{28}{subsection.4.1.2}}
\@writefile{lof}{\defcounter {refsection}{0}\relax }\@writefile{lof}{\contentsline {figure}{\numberline {4.1}{\ignorespaces Diagrama de flujo para la construcci\IeC {\'o}n de datasets}}{28}{figure.caption.44}}
\newlabel{fig:data}{{4.1}{28}{Diagrama de flujo para la construcción de datasets}{figure.caption.44}{}}
\@writefile{lof}{\defcounter {refsection}{0}\relax }\@writefile{lof}{\contentsline {figure}{\numberline {4.2}{\ignorespaces Diagrama de flujo para la recuperaci\IeC {\'o}n de modelos}}{29}{figure.caption.45}}
\newlabel{fig:data2}{{4.2}{29}{Diagrama de flujo para la recuperación de modelos}{figure.caption.45}{}}
\@writefile{lof}{\defcounter {refsection}{0}\relax }\@writefile{lof}{\contentsline {figure}{\numberline {4.3}{\ignorespaces Diagrama de flujo para la predicci\IeC {\'o}n}}{29}{figure.caption.46}}
\newlabel{fig:data3}{{4.3}{29}{Diagrama de flujo para la predicción}{figure.caption.46}{}}
\@writefile{toc}{\defcounter {refsection}{0}\relax }\@writefile{toc}{\contentsline {subsection}{\numberline {4.1.3}T3. Definici\IeC {\'o}n de los datasets y las clases de entrenamiento}{30}{subsection.4.1.3}}
\@writefile{toc}{\defcounter {refsection}{0}\relax }\@writefile{toc}{\contentsline {subsection}{\numberline {4.1.4}T4. Construir m\IeC {\'o}dulo de preproceso para los documentos}{31}{subsection.4.1.4}}
\newlabel{fig:des1}{{4.4(a)}{31}{Subfigure 4 4.4(a)}{subfigure.4.4.1}{}}
\newlabel{sub@fig:des1}{{(a)}{31}{Subfigure 4 4.4(a)\relax }{subfigure.4.4.1}{}}
\newlabel{fig:des3}{{4.4(b)}{31}{Subfigure 4 4.4(b)}{subfigure.4.4.2}{}}
\newlabel{sub@fig:des3}{{(b)}{31}{Subfigure 4 4.4(b)\relax }{subfigure.4.4.2}{}}
\@writefile{lof}{\defcounter {refsection}{0}\relax }\@writefile{lof}{\contentsline {figure}{\numberline {4.4}{\ignorespaces Preproceso en el dataset de Indra}}{31}{figure.caption.47}}
\newlabel{fig:indra_des}{{4.4}{31}{Preproceso en el dataset de Indra}{figure.caption.47}{}}
\@writefile{lof}{\defcounter {refsection}{0}\relax }\@writefile{lof}{\contentsline {subfigure}{\numberline{(a)}{\ignorespaces {Dataset Indra desbalanceado inicialmente}}}{31}{figure.caption.47}}
\@writefile{lof}{\defcounter {refsection}{0}\relax }\@writefile{lof}{\contentsline {subfigure}{\numberline{(b)}{\ignorespaces {Dataset Indra balanceado}}}{31}{figure.caption.47}}
\@writefile{lof}{\defcounter {refsection}{0}\relax }\@writefile{lof}{\contentsline {figure}{\numberline {4.5}{\ignorespaces Dataset noticias}}{32}{figure.caption.48}}
\newlabel{fig:des4}{{4.5}{32}{Dataset noticias}{figure.caption.48}{}}
\newlabel{lst:Python}{{4.1}{32}{Código relativo al procesamiento de texto}{lstlisting.4.1}{}}
\@writefile{lol}{\defcounter {refsection}{0}\relax }\@writefile{lol}{\contentsline {lstlisting}{\numberline {4.1}C\IeC {\'o}digo relativo al procesamiento de texto}{32}{lstlisting.4.1}}
\@writefile{toc}{\defcounter {refsection}{0}\relax }\@writefile{toc}{\contentsline {subsection}{\numberline {4.1.5}T5. Construir m\IeC {\'o}dulo de limpieza para los documentos preprocesados}{33}{subsection.4.1.5}}
\newlabel{lst:limpiar}{{4.2}{33}{Código relativo a la limpieza del texto}{lstlisting.4.2}{}}
\@writefile{lol}{\defcounter {refsection}{0}\relax }\@writefile{lol}{\contentsline {lstlisting}{\numberline {4.2}C\IeC {\'o}digo relativo a la limpieza del texto}{33}{lstlisting.4.2}}
\@writefile{toc}{\defcounter {refsection}{0}\relax }\@writefile{toc}{\contentsline {subsection}{\numberline {4.1.6}T6. Construir los datasets para la clasificaci\IeC {\'o}n}{34}{subsection.4.1.6}}
\newlabel{lst:limpiar1}{{4.3}{34}{Código relativo al inicio del preproceso y limpieza }{lstlisting.4.3}{}}
\@writefile{lol}{\defcounter {refsection}{0}\relax }\@writefile{lol}{\contentsline {lstlisting}{\numberline {4.3}C\IeC {\'o}digo relativo al inicio del preproceso y limpieza }{34}{lstlisting.4.3}}
\newlabel{lst:unir}{{4.4}{34}{Código unión del texto}{lstlisting.4.4}{}}
\@writefile{lol}{\defcounter {refsection}{0}\relax }\@writefile{lol}{\contentsline {lstlisting}{\numberline {4.4}C\IeC {\'o}digo uni\IeC {\'o}n del texto}{34}{lstlisting.4.4}}
\newlabel{lst:limpiar3}{{4.5}{34}{Código relativo a la recuperación de datasets}{lstlisting.4.5}{}}
\@writefile{lol}{\defcounter {refsection}{0}\relax }\@writefile{lol}{\contentsline {lstlisting}{\numberline {4.5}C\IeC {\'o}digo relativo a la recuperaci\IeC {\'o}n de datasets}{34}{lstlisting.4.5}}
\@writefile{toc}{\defcounter {refsection}{0}\relax }\@writefile{toc}{\contentsline {subsection}{\numberline {4.1.7}T7. Construir m\IeC {\'o}dulo para la divisi\IeC {\'o}n de los dataset en conjunto de test y entrenamiento}{35}{subsection.4.1.7}}
\newlabel{lst:readataset}{{4.6}{35}{Código lectura dataset}{lstlisting.4.6}{}}
\@writefile{lol}{\defcounter {refsection}{0}\relax }\@writefile{lol}{\contentsline {lstlisting}{\numberline {4.6}C\IeC {\'o}digo lectura dataset}{35}{lstlisting.4.6}}
\newlabel{lst:traintest2}{{4.7}{35}{Código relativo a la separación del dataset}{lstlisting.4.7}{}}
\@writefile{lol}{\defcounter {refsection}{0}\relax }\@writefile{lol}{\contentsline {lstlisting}{\numberline {4.7}C\IeC {\'o}digo relativo a la separaci\IeC {\'o}n del dataset}{35}{lstlisting.4.7}}
\@writefile{toc}{\defcounter {refsection}{0}\relax }\@writefile{toc}{\contentsline {section}{\numberline {4.2}Sprint 2}{36}{section.4.2}}
\@writefile{lot}{\defcounter {refsection}{0}\relax }\@writefile{lot}{\contentsline {table}{\numberline {4.2}{\ignorespaces Tabla planificaci\IeC {\'o}n Sprint 2\relax }}{36}{table.caption.56}}
\newlabel{tab:plan_sprint2}{{4.2}{36}{Tabla planificación Sprint 2\relax }{table.caption.56}{}}
\@writefile{toc}{\defcounter {refsection}{0}\relax }\@writefile{toc}{\contentsline {subsection}{\numberline {4.2.1}T8. Construir la representaci\IeC {\'o}n matem\IeC {\'a}tica de los dataset basada en word embeddings}{36}{subsection.4.2.1}}
\newlabel{lst:emb}{{4.8}{36}{Código carga de word embeddings}{lstlisting.4.8}{}}
\@writefile{lol}{\defcounter {refsection}{0}\relax }\@writefile{lol}{\contentsline {lstlisting}{\numberline {4.8}C\IeC {\'o}digo carga de word embeddings}{36}{lstlisting.4.8}}
\newlabel{lst:pick}{{4.9}{37}{Código carga rápida de word embeddings}{lstlisting.4.9}{}}
\@writefile{lol}{\defcounter {refsection}{0}\relax }\@writefile{lol}{\contentsline {lstlisting}{\numberline {4.9}C\IeC {\'o}digo carga r\IeC {\'a}pida de word embeddings}{37}{lstlisting.4.9}}
\newlabel{lst:token}{{4.10}{37}{Código Tokenizer Keras}{lstlisting.4.10}{}}
\@writefile{lol}{\defcounter {refsection}{0}\relax }\@writefile{lol}{\contentsline {lstlisting}{\numberline {4.10}C\IeC {\'o}digo Tokenizer Keras}{37}{lstlisting.4.10}}
\newlabel{lst:token2}{{4.11}{37}{Código tratamiento de secuencias}{lstlisting.4.11}{}}
\@writefile{lol}{\defcounter {refsection}{0}\relax }\@writefile{lol}{\contentsline {lstlisting}{\numberline {4.11}C\IeC {\'o}digo tratamiento de secuencias}{37}{lstlisting.4.11}}
\newlabel{lst:tokenpik}{{4.12}{38}{Código recuperación Tokenizer }{lstlisting.4.12}{}}
\@writefile{lol}{\defcounter {refsection}{0}\relax }\@writefile{lol}{\contentsline {lstlisting}{\numberline {4.12}C\IeC {\'o}digo recuperaci\IeC {\'o}n Tokenizer }{38}{lstlisting.4.12}}
\@writefile{toc}{\defcounter {refsection}{0}\relax }\@writefile{toc}{\contentsline {subsection}{\numberline {4.2.2}T9. Construir modelo basado en redes neuronales convolucionales}{38}{subsection.4.2.2}}
\newlabel{lst:token2}{{4.13}{38}{Código creación matriz de word embeddings}{lstlisting.4.13}{}}
\@writefile{lol}{\defcounter {refsection}{0}\relax }\@writefile{lol}{\contentsline {lstlisting}{\numberline {4.13}C\IeC {\'o}digo creaci\IeC {\'o}n matriz de word embeddings}{38}{lstlisting.4.13}}
\newlabel{lst:token3}{{4.14}{39}{Código creación capa de word embeddings}{lstlisting.4.14}{}}
\@writefile{lol}{\defcounter {refsection}{0}\relax }\@writefile{lol}{\contentsline {lstlisting}{\numberline {4.14}C\IeC {\'o}digo creaci\IeC {\'o}n capa de word embeddings}{39}{lstlisting.4.14}}
\newlabel{lst:conv}{{4.15}{39}{Código entrenamiento modelo convolucional}{lstlisting.4.15}{}}
\@writefile{lol}{\defcounter {refsection}{0}\relax }\@writefile{lol}{\contentsline {lstlisting}{\numberline {4.15}C\IeC {\'o}digo entrenamiento modelo convolucional}{39}{lstlisting.4.15}}
\newlabel{lst:tensorf}{{4.16}{40}{Código configuración Tensorflow}{lstlisting.4.16}{}}
\@writefile{lol}{\defcounter {refsection}{0}\relax }\@writefile{lol}{\contentsline {lstlisting}{\numberline {4.16}C\IeC {\'o}digo configuraci\IeC {\'o}n Tensorflow}{40}{lstlisting.4.16}}
\newlabel{lst:conv_call}{{4.17}{40}{Código llamada modelo convolucional}{lstlisting.4.17}{}}
\@writefile{lol}{\defcounter {refsection}{0}\relax }\@writefile{lol}{\contentsline {lstlisting}{\numberline {4.17}C\IeC {\'o}digo llamada modelo convolucional}{40}{lstlisting.4.17}}
\@writefile{toc}{\defcounter {refsection}{0}\relax }\@writefile{toc}{\contentsline {subsection}{\numberline {4.2.3}T10. Construir modelo basado en redes neuronales LSTM}{41}{subsection.4.2.3}}
\newlabel{lst:lstm}{{4.18}{41}{Código entrenamiento modelo LSTM}{lstlisting.4.18}{}}
\@writefile{lol}{\defcounter {refsection}{0}\relax }\@writefile{lol}{\contentsline {lstlisting}{\numberline {4.18}C\IeC {\'o}digo entrenamiento modelo LSTM}{41}{lstlisting.4.18}}
\newlabel{lst:lstm}{{4.19}{42}{Código llamada modelo LSTM}{lstlisting.4.19}{}}
\@writefile{lol}{\defcounter {refsection}{0}\relax }\@writefile{lol}{\contentsline {lstlisting}{\numberline {4.19}C\IeC {\'o}digo llamada modelo LSTM}{42}{lstlisting.4.19}}
\newlabel{lst:graf}{{4.20}{42}{Código generación de gráficos}{lstlisting.4.20}{}}
\@writefile{lol}{\defcounter {refsection}{0}\relax }\@writefile{lol}{\contentsline {lstlisting}{\numberline {4.20}C\IeC {\'o}digo generaci\IeC {\'o}n de gr\IeC {\'a}ficos}{42}{lstlisting.4.20}}
\@writefile{toc}{\defcounter {refsection}{0}\relax }\@writefile{toc}{\contentsline {subsection}{\numberline {4.2.4}T11. Construir m\IeC {\'o}dulo para configurar y recuperar modelos}{43}{subsection.4.2.4}}
\newlabel{lst:hiper}{{4.21}{43}{Configuración común de hiperparámetros}{lstlisting.4.21}{}}
\@writefile{lol}{\defcounter {refsection}{0}\relax }\@writefile{lol}{\contentsline {lstlisting}{\numberline {4.21}Configuraci\IeC {\'o}n com\IeC {\'u}n de hiperpar\IeC {\'a}metros}{43}{lstlisting.4.21}}
\@writefile{toc}{\defcounter {refsection}{0}\relax }\@writefile{toc}{\contentsline {subsection}{\numberline {4.2.5}T12. Construir m\IeC {\'o}dulo para la predicci\IeC {\'o}n de modelos}{45}{subsection.4.2.5}}
\newlabel{lst:s}{{4.22}{45}{Código para el paso de texto a secuencia}{lstlisting.4.22}{}}
\@writefile{lol}{\defcounter {refsection}{0}\relax }\@writefile{lol}{\contentsline {lstlisting}{\numberline {4.22}C\IeC {\'o}digo para el paso de texto a secuencia}{45}{lstlisting.4.22}}
\newlabel{lst:p}{{4.23}{45}{Código para realizar predicciones}{lstlisting.4.23}{}}
\@writefile{lol}{\defcounter {refsection}{0}\relax }\@writefile{lol}{\contentsline {lstlisting}{\numberline {4.23}C\IeC {\'o}digo para realizar predicciones}{45}{lstlisting.4.23}}
\@writefile{toc}{\defcounter {refsection}{0}\relax }\@writefile{toc}{\contentsline {subsection}{\numberline {4.2.6}T13. Construir m\IeC {\'o}dulo para estudio y comparativa de modelos}{46}{subsection.4.2.6}}
\newlabel{lst:ev}{{4.24}{46}{Código para evaluar un modelo}{lstlisting.4.24}{}}
\@writefile{lol}{\defcounter {refsection}{0}\relax }\@writefile{lol}{\contentsline {lstlisting}{\numberline {4.24}C\IeC {\'o}digo para evaluar un modelo}{46}{lstlisting.4.24}}
\@writefile{toc}{\defcounter {refsection}{0}\relax }\@writefile{toc}{\contentsline {subsubsection}{Resultados}{46}{section*.74}}
\newlabel{fig:acc_conv_indra}{{4.6(a)}{46}{Subfigure 4 4.6(a)}{subfigure.4.6.1}{}}
\newlabel{sub@fig:acc_conv_indra}{{(a)}{46}{Subfigure 4 4.6(a)\relax }{subfigure.4.6.1}{}}
\newlabel{fig:loss_conv_indra}{{4.6(b)}{46}{Subfigure 4 4.6(b)}{subfigure.4.6.2}{}}
\newlabel{sub@fig:loss_conv_indra}{{(b)}{46}{Subfigure 4 4.6(b)\relax }{subfigure.4.6.2}{}}
\@writefile{lof}{\defcounter {refsection}{0}\relax }\@writefile{lof}{\contentsline {figure}{\numberline {4.6}{\ignorespaces Resultados modelo convolucional Indra}}{46}{figure.caption.75}}
\newlabel{fig:conv_indra}{{4.6}{46}{Resultados modelo convolucional Indra}{figure.caption.75}{}}
\@writefile{lof}{\defcounter {refsection}{0}\relax }\@writefile{lof}{\contentsline {subfigure}{\numberline{(a)}{\ignorespaces {Precisi\IeC {\'o}n en el dataset de Indra}}}{46}{figure.caption.75}}
\@writefile{lof}{\defcounter {refsection}{0}\relax }\@writefile{lof}{\contentsline {subfigure}{\numberline{(b)}{\ignorespaces {P\IeC {\'e}rdida en el dataset de Indra}}}{46}{figure.caption.75}}
\@writefile{lot}{\defcounter {refsection}{0}\relax }\@writefile{lot}{\contentsline {table}{\numberline {4.3}{\ignorespaces Tabla informe de predicciones modelo convolucional Indra\relax }}{47}{table.caption.76}}
\newlabel{tab:sklearn1}{{4.3}{47}{Tabla informe de predicciones modelo convolucional Indra\relax }{table.caption.76}{}}
\newlabel{fig:lstm_loss_indra}{{4.7(a)}{47}{Subfigure 4 4.7(a)}{subfigure.4.7.1}{}}
\newlabel{sub@fig:lstm_loss_indra}{{(a)}{47}{Subfigure 4 4.7(a)\relax }{subfigure.4.7.1}{}}
\newlabel{fig:lstm_acc_indra}{{4.7(b)}{47}{Subfigure 4 4.7(b)}{subfigure.4.7.2}{}}
\newlabel{sub@fig:lstm_acc_indra}{{(b)}{47}{Subfigure 4 4.7(b)\relax }{subfigure.4.7.2}{}}
\@writefile{lof}{\defcounter {refsection}{0}\relax }\@writefile{lof}{\contentsline {figure}{\numberline {4.7}{\ignorespaces Resultados modelo LSTM Indra}}{47}{figure.caption.77}}
\newlabel{fig:res_lstm}{{4.7}{47}{Resultados modelo LSTM Indra}{figure.caption.77}{}}
\@writefile{lof}{\defcounter {refsection}{0}\relax }\@writefile{lof}{\contentsline {subfigure}{\numberline{(a)}{\ignorespaces {Precisi\IeC {\'o}n en el dataset de Indra}}}{47}{figure.caption.77}}
\@writefile{lof}{\defcounter {refsection}{0}\relax }\@writefile{lof}{\contentsline {subfigure}{\numberline{(b)}{\ignorespaces {P\IeC {\'e}rdida en el dataset de Indra}}}{47}{figure.caption.77}}
\@writefile{lot}{\defcounter {refsection}{0}\relax }\@writefile{lot}{\contentsline {table}{\numberline {4.4}{\ignorespaces Tabla informe de predicciones modelo LSTM Indra\relax }}{48}{table.caption.78}}
\newlabel{tab:sklearn2}{{4.4}{48}{Tabla informe de predicciones modelo LSTM Indra\relax }{table.caption.78}{}}
\newlabel{fig:conv_acc_news}{{4.8(a)}{49}{Subfigure 4 4.8(a)}{subfigure.4.8.1}{}}
\newlabel{sub@fig:conv_acc_news}{{(a)}{49}{Subfigure 4 4.8(a)\relax }{subfigure.4.8.1}{}}
\newlabel{fig:conv_loss_news}{{4.8(b)}{49}{Subfigure 4 4.8(b)}{subfigure.4.8.2}{}}
\newlabel{sub@fig:conv_loss_news}{{(b)}{49}{Subfigure 4 4.8(b)\relax }{subfigure.4.8.2}{}}
\@writefile{lof}{\defcounter {refsection}{0}\relax }\@writefile{lof}{\contentsline {figure}{\numberline {4.8}{\ignorespaces Resultados modelo convolucional noticias}}{49}{figure.caption.79}}
\newlabel{fig:res_conv_news}{{4.8}{49}{Resultados modelo convolucional noticias}{figure.caption.79}{}}
\@writefile{lof}{\defcounter {refsection}{0}\relax }\@writefile{lof}{\contentsline {subfigure}{\numberline{(a)}{\ignorespaces {Precisi\IeC {\'o}n en el dataset de noticias}}}{49}{figure.caption.79}}
\@writefile{lof}{\defcounter {refsection}{0}\relax }\@writefile{lof}{\contentsline {subfigure}{\numberline{(b)}{\ignorespaces {P\IeC {\'e}rdida en el dataset de noticias}}}{49}{figure.caption.79}}
\@writefile{lot}{\defcounter {refsection}{0}\relax }\@writefile{lot}{\contentsline {table}{\numberline {4.5}{\ignorespaces Tabla informe de predicciones modelo convolucional noticias\relax }}{49}{table.caption.80}}
\newlabel{tab:conv_news}{{4.5}{49}{Tabla informe de predicciones modelo convolucional noticias\relax }{table.caption.80}{}}
\newlabel{fig:lstm_acc_news}{{4.9(a)}{50}{Subfigure 4 4.9(a)}{subfigure.4.9.1}{}}
\newlabel{sub@fig:lstm_acc_news}{{(a)}{50}{Subfigure 4 4.9(a)\relax }{subfigure.4.9.1}{}}
\newlabel{fig:lstm_loss_news}{{4.9(b)}{50}{Subfigure 4 4.9(b)}{subfigure.4.9.2}{}}
\newlabel{sub@fig:lstm_loss_news}{{(b)}{50}{Subfigure 4 4.9(b)\relax }{subfigure.4.9.2}{}}
\@writefile{lof}{\defcounter {refsection}{0}\relax }\@writefile{lof}{\contentsline {figure}{\numberline {4.9}{\ignorespaces Resultados modelo LSTM noticias}}{50}{figure.caption.81}}
\newlabel{fig:res_lstm_news}{{4.9}{50}{Resultados modelo LSTM noticias}{figure.caption.81}{}}
\@writefile{lof}{\defcounter {refsection}{0}\relax }\@writefile{lof}{\contentsline {subfigure}{\numberline{(a)}{\ignorespaces {Precisi\IeC {\'o}n en el dataset de noticias}}}{50}{figure.caption.81}}
\@writefile{lof}{\defcounter {refsection}{0}\relax }\@writefile{lof}{\contentsline {subfigure}{\numberline{(b)}{\ignorespaces {P\IeC {\'e}rdida en el dataset de noticias}}}{50}{figure.caption.81}}
\@writefile{lot}{\defcounter {refsection}{0}\relax }\@writefile{lot}{\contentsline {table}{\numberline {4.6}{\ignorespaces Tabla informe de predicciones modelo LSTM noticias\relax }}{50}{table.caption.82}}
\newlabel{tab:sklearn3}{{4.6}{50}{Tabla informe de predicciones modelo LSTM noticias\relax }{table.caption.82}{}}
\@writefile{toc}{\defcounter {refsection}{0}\relax }\@writefile{toc}{\contentsline {section}{\numberline {4.3}Sprint 3}{51}{section.4.3}}
\@writefile{lot}{\defcounter {refsection}{0}\relax }\@writefile{lot}{\contentsline {table}{\numberline {4.7}{\ignorespaces Tabla planificaci\IeC {\'o}n Sprint 3\relax }}{51}{table.caption.83}}
\newlabel{tab:plan_sprint3}{{4.7}{51}{Tabla planificación Sprint 3\relax }{table.caption.83}{}}
\@writefile{toc}{\defcounter {refsection}{0}\relax }\@writefile{toc}{\contentsline {subsection}{\numberline {4.3.1}T14. Construir una aplicaci\IeC {\'o}n web y sistema de base de datos}{51}{subsection.4.3.1}}
\newlabel{lst:main}{{4.25}{52}{Estructura de archivos y directorios de la aplicación web}{lstlisting.4.25}{}}
\@writefile{lol}{\defcounter {refsection}{0}\relax }\@writefile{lol}{\contentsline {lstlisting}{\numberline {4.25}Estructura de archivos y directorios de la aplicaci\IeC {\'o}n web}{52}{lstlisting.4.25}}
\@writefile{lof}{\defcounter {refsection}{0}\relax }\@writefile{lof}{\contentsline {figure}{\numberline {4.10}{\ignorespaces Model View Template}}{53}{figure.caption.85}}
\newlabel{fig:mvt}{{4.10}{53}{Model View Template}{figure.caption.85}{}}
\newlabel{lst:urls}{{4.26}{53}{Estructura de rutas del módulo principal}{lstlisting.4.26}{}}
\@writefile{lol}{\defcounter {refsection}{0}\relax }\@writefile{lol}{\contentsline {lstlisting}{\numberline {4.26}Estructura de rutas del m\IeC {\'o}dulo principal}{53}{lstlisting.4.26}}
\@writefile{lof}{\defcounter {refsection}{0}\relax }\@writefile{lof}{\contentsline {figure}{\numberline {4.11}{\ignorespaces Aplicaci\IeC {\'o}n web ClaTek}}{54}{figure.caption.87}}
\newlabel{fig:clatek1}{{4.11}{54}{Aplicación web ClaTek}{figure.caption.87}{}}
\@writefile{lof}{\defcounter {refsection}{0}\relax }\@writefile{lof}{\contentsline {figure}{\numberline {4.12}{\ignorespaces Aplicaci\IeC {\'o}n web ClaTek - Inicio}}{54}{figure.caption.88}}
\newlabel{fig:clatek2}{{4.12}{54}{Aplicación web ClaTek - Inicio}{figure.caption.88}{}}
\@writefile{toc}{\defcounter {refsection}{0}\relax }\@writefile{toc}{\contentsline {subsection}{\numberline {4.3.2}T15. Construir la gesti\IeC {\'o}n de usuarios de la aplicaci\IeC {\'o}n web}{55}{subsection.4.3.2}}
\newlabel{lst:config_users}{{4.27}{55}{Código configuración módulo usuarios}{lstlisting.4.27}{}}
\@writefile{lol}{\defcounter {refsection}{0}\relax }\@writefile{lol}{\contentsline {lstlisting}{\numberline {4.27}C\IeC {\'o}digo configuraci\IeC {\'o}n m\IeC {\'o}dulo usuarios}{55}{lstlisting.4.27}}
\@writefile{toc}{\defcounter {refsection}{0}\relax }\@writefile{toc}{\contentsline {subsubsection}{Modelo}{55}{section*.90}}
\newlabel{lst:user_mods}{{4.28}{55}{Código relativo a modelos en el módulo de usuarios}{lstlisting.4.28}{}}
\@writefile{lol}{\defcounter {refsection}{0}\relax }\@writefile{lol}{\contentsline {lstlisting}{\numberline {4.28}C\IeC {\'o}digo relativo a modelos en el m\IeC {\'o}dulo de usuarios}{55}{lstlisting.4.28}}
\@writefile{toc}{\defcounter {refsection}{0}\relax }\@writefile{toc}{\contentsline {subsubsection}{Se\IeC {\~n}ales}{56}{section*.92}}
\newlabel{lst:signal}{{4.29}{56}{Código relativo a señales módulo de usuarios}{lstlisting.4.29}{}}
\@writefile{lol}{\defcounter {refsection}{0}\relax }\@writefile{lol}{\contentsline {lstlisting}{\numberline {4.29}C\IeC {\'o}digo relativo a se\IeC {\~n}ales m\IeC {\'o}dulo de usuarios}{56}{lstlisting.4.29}}
\@writefile{toc}{\defcounter {refsection}{0}\relax }\@writefile{toc}{\contentsline {subsubsection}{Formularios}{56}{section*.94}}
\newlabel{lst:formus}{{4.30}{56}{Código relativo a los formularios módulo usuarios}{lstlisting.4.30}{}}
\@writefile{lol}{\defcounter {refsection}{0}\relax }\@writefile{lol}{\contentsline {lstlisting}{\numberline {4.30}C\IeC {\'o}digo relativo a los formularios m\IeC {\'o}dulo usuarios}{56}{lstlisting.4.30}}
\@writefile{toc}{\defcounter {refsection}{0}\relax }\@writefile{toc}{\contentsline {subsubsection}{Vistas}{57}{section*.96}}
\newlabel{lst:view}{{4.31}{57}{Código relativo a las vistas módulo de usuarios}{lstlisting.4.31}{}}
\@writefile{lol}{\defcounter {refsection}{0}\relax }\@writefile{lol}{\contentsline {lstlisting}{\numberline {4.31}C\IeC {\'o}digo relativo a las vistas m\IeC {\'o}dulo de usuarios}{57}{lstlisting.4.31}}
\@writefile{toc}{\defcounter {refsection}{0}\relax }\@writefile{toc}{\contentsline {subsubsection}{Plantillas}{58}{section*.98}}
\@writefile{lof}{\defcounter {refsection}{0}\relax }\@writefile{lof}{\contentsline {figure}{\numberline {4.13}{\ignorespaces Aplicaci\IeC {\'o}n web ClaTek - Login}}{58}{figure.caption.99}}
\newlabel{fig:login}{{4.13}{58}{Aplicación web ClaTek - Login}{figure.caption.99}{}}
\@writefile{lof}{\defcounter {refsection}{0}\relax }\@writefile{lof}{\contentsline {figure}{\numberline {4.14}{\ignorespaces Aplicaci\IeC {\'o}n web ClaTek - Registrarse}}{58}{figure.caption.100}}
\newlabel{fig:registrarse}{{4.14}{58}{Aplicación web ClaTek - Registrarse}{figure.caption.100}{}}
\@writefile{toc}{\defcounter {refsection}{0}\relax }\@writefile{toc}{\contentsline {subsection}{\numberline {4.3.3}T16. Construir la gesti\IeC {\'o}n de modelos del servicio web}{59}{subsection.4.3.3}}
\newlabel{lst:urls_repo}{{4.32}{59}{Código configuración módulo repositorio}{lstlisting.4.32}{}}
\@writefile{lol}{\defcounter {refsection}{0}\relax }\@writefile{lol}{\contentsline {lstlisting}{\numberline {4.32}C\IeC {\'o}digo configuraci\IeC {\'o}n m\IeC {\'o}dulo repositorio}{59}{lstlisting.4.32}}
\newlabel{lst:repourl}{{4.33}{59}{Código relativo a las rutas módulo repositorio}{lstlisting.4.33}{}}
\@writefile{lol}{\defcounter {refsection}{0}\relax }\@writefile{lol}{\contentsline {lstlisting}{\numberline {4.33}C\IeC {\'o}digo relativo a las rutas m\IeC {\'o}dulo repositorio}{59}{lstlisting.4.33}}
\@writefile{toc}{\defcounter {refsection}{0}\relax }\@writefile{toc}{\contentsline {subsubsection}{Modelos}{60}{section*.103}}
\newlabel{lst:modkeras}{{4.34}{60}{Código relativo a modelos módulo repositorio}{lstlisting.4.34}{}}
\@writefile{lol}{\defcounter {refsection}{0}\relax }\@writefile{lol}{\contentsline {lstlisting}{\numberline {4.34}C\IeC {\'o}digo relativo a modelos m\IeC {\'o}dulo repositorio}{60}{lstlisting.4.34}}
\@writefile{toc}{\defcounter {refsection}{0}\relax }\@writefile{toc}{\contentsline {subsubsection}{Formularios}{60}{section*.105}}
\newlabel{lst:formrepo}{{4.35}{60}{Código relativo a formulario módulo repositorio}{lstlisting.4.35}{}}
\@writefile{lol}{\defcounter {refsection}{0}\relax }\@writefile{lol}{\contentsline {lstlisting}{\numberline {4.35}C\IeC {\'o}digo relativo a formulario m\IeC {\'o}dulo repositorio}{60}{lstlisting.4.35}}
\@writefile{toc}{\defcounter {refsection}{0}\relax }\@writefile{toc}{\contentsline {subsubsection}{Vistas}{61}{section*.107}}
\newlabel{lst:repoview}{{4.36}{61}{Código relativo a las vistas módulo repositorio}{lstlisting.4.36}{}}
\@writefile{lol}{\defcounter {refsection}{0}\relax }\@writefile{lol}{\contentsline {lstlisting}{\numberline {4.36}C\IeC {\'o}digo relativo a las vistas m\IeC {\'o}dulo repositorio}{61}{lstlisting.4.36}}
\@writefile{toc}{\defcounter {refsection}{0}\relax }\@writefile{toc}{\contentsline {subsubsection}{Plantillas}{62}{section*.109}}
\@writefile{lof}{\defcounter {refsection}{0}\relax }\@writefile{lof}{\contentsline {figure}{\numberline {4.15}{\ignorespaces Aplicaci\IeC {\'o}n web ClaTek - Subir modelo}}{62}{figure.caption.110}}
\newlabel{fig:subir_modelo}{{4.15}{62}{Aplicación web ClaTek - Subir modelo}{figure.caption.110}{}}
\@writefile{lof}{\defcounter {refsection}{0}\relax }\@writefile{lof}{\contentsline {figure}{\numberline {4.16}{\ignorespaces Aplicaci\IeC {\'o}n web ClaTek - Listar modelos}}{63}{figure.caption.111}}
\newlabel{fig:listar_modelo}{{4.16}{63}{Aplicación web ClaTek - Listar modelos}{figure.caption.111}{}}
\@writefile{lof}{\defcounter {refsection}{0}\relax }\@writefile{lof}{\contentsline {figure}{\numberline {4.17}{\ignorespaces Aplicaci\IeC {\'o}n web ClaTek - Detalles del modelo}}{63}{figure.caption.112}}
\newlabel{fig:model_detail}{{4.17}{63}{Aplicación web ClaTek - Detalles del modelo}{figure.caption.112}{}}
\@writefile{toc}{\defcounter {refsection}{0}\relax }\@writefile{toc}{\contentsline {subsection}{\numberline {4.3.4}T17. Integrar al backend el m\IeC {\'o}dulo de predicci\IeC {\'o}n de la aplicaci\IeC {\'o}n web}{63}{subsection.4.3.4}}
\@writefile{toc}{\defcounter {refsection}{0}\relax }\@writefile{toc}{\contentsline {subsubsection}{Formulario}{64}{section*.113}}
\newlabel{lst:predform}{{4.37}{64}{Código relativo al formulario de predicción}{lstlisting.4.37}{}}
\@writefile{lol}{\defcounter {refsection}{0}\relax }\@writefile{lol}{\contentsline {lstlisting}{\numberline {4.37}C\IeC {\'o}digo relativo al formulario de predicci\IeC {\'o}n}{64}{lstlisting.4.37}}
\@writefile{toc}{\defcounter {refsection}{0}\relax }\@writefile{toc}{\contentsline {subsubsection}{Vistas}{64}{section*.115}}
\@writefile{toc}{\defcounter {refsection}{0}\relax }\@writefile{toc}{\contentsline {subsubsection}{Plantillas}{65}{section*.117}}
\@writefile{lof}{\defcounter {refsection}{0}\relax }\@writefile{lof}{\contentsline {figure}{\numberline {4.18}{\ignorespaces Aplicaci\IeC {\'o}n web ClaTek - Predecir}}{65}{figure.caption.118}}
\newlabel{fig:predecir_web}{{4.18}{65}{Aplicación web ClaTek - Predecir}{figure.caption.118}{}}
\@writefile{lof}{\defcounter {refsection}{0}\relax }\@writefile{lof}{\contentsline {figure}{\numberline {4.19}{\ignorespaces Aplicaci\IeC {\'o}n web ClaTek - Resultado}}{66}{figure.caption.119}}
\newlabel{fig:resultados_web}{{4.19}{66}{Aplicación web ClaTek - Resultado}{figure.caption.119}{}}
\@writefile{toc}{\defcounter {refsection}{0}\relax }\@writefile{toc}{\contentsline {subsection}{\numberline {4.3.5}T18. Crear manual de usuario para la utilizaci\IeC {\'o}n de la aplicaci\IeC {\'o}n web}{66}{subsection.4.3.5}}
\newlabel{sec:man}{{4.3.5}{66}{T18. Crear manual de usuario para la utilización de la aplicación web}{subsection.4.3.5}{}}
\@writefile{lof}{\defcounter {refsection}{0}\relax }\@writefile{lof}{\contentsline {figure}{\numberline {4.20}{\ignorespaces Manual de Usuario - Registro requerido}}{66}{figure.caption.120}}
\newlabel{fig:mensajeweb}{{4.20}{66}{Manual de Usuario - Registro requerido}{figure.caption.120}{}}
\@writefile{lof}{\defcounter {refsection}{0}\relax }\@writefile{lof}{\contentsline {figure}{\numberline {4.21}{\ignorespaces Manual de Usuario - Logout}}{67}{figure.caption.121}}
\newlabel{fig:logout}{{4.21}{67}{Manual de Usuario - Logout}{figure.caption.121}{}}
\@writefile{lof}{\defcounter {refsection}{0}\relax }\@writefile{lof}{\contentsline {figure}{\numberline {4.22}{\ignorespaces Manual de Usuario - Eliminar}}{67}{figure.caption.122}}
\newlabel{fig:eliminar}{{4.22}{67}{Manual de Usuario - Eliminar}{figure.caption.122}{}}
\@writefile{lof}{\defcounter {refsection}{0}\relax }\@writefile{lof}{\contentsline {figure}{\numberline {4.23}{\ignorespaces Manual de Usuario - Editar modelos}}{68}{figure.caption.123}}
\newlabel{fig:editarmodelo}{{4.23}{68}{Manual de Usuario - Editar modelos}{figure.caption.123}{}}
\@writefile{lof}{\defcounter {refsection}{0}\relax }\@writefile{lof}{\contentsline {figure}{\numberline {4.24}{\ignorespaces Manual de Usuario - Editar fragmento}}{68}{figure.caption.124}}
\newlabel{fig:editarfragmento}{{4.24}{68}{Manual de Usuario - Editar fragmento}{figure.caption.124}{}}
\newlabel{eq6}{{4.1}{68}{T18. Crear manual de usuario para la utilización de la aplicación web}{equation.4.3.1}{}}
\@writefile{lof}{\defcounter {refsection}{0}\relax }\@writefile{lof}{\contentsline {figure}{\numberline {4.25}{\ignorespaces Manual de Usuario - Perfil}}{69}{figure.caption.125}}
\newlabel{fig:perfil}{{4.25}{69}{Manual de Usuario - Perfil}{figure.caption.125}{}}
\newlabel{lst:predview}{{4.38}{70}{Código relativo a las vistas módulo de predicción}{lstlisting.4.38}{}}
\@writefile{lol}{\defcounter {refsection}{0}\relax }\@writefile{lol}{\contentsline {lstlisting}{\numberline {4.38}C\IeC {\'o}digo relativo a las vistas m\IeC {\'o}dulo de predicci\IeC {\'o}n}{70}{lstlisting.4.38}}
\@setckpt{./Resultados}{
\setcounter{page}{71}
\setcounter{equation}{1}
\setcounter{enumi}{3}
\setcounter{enumii}{0}
\setcounter{enumiii}{0}
\setcounter{enumiv}{0}
\setcounter{footnote}{13}
\setcounter{mpfootnote}{0}
\setcounter{part}{0}
\setcounter{chapter}{4}
\setcounter{section}{3}
\setcounter{subsection}{5}
\setcounter{subsubsection}{0}
\setcounter{paragraph}{0}
\setcounter{subparagraph}{0}
\setcounter{figure}{25}
\setcounter{table}{7}
\setcounter{parentequation}{0}
\setcounter{Item}{28}
\setcounter{Hfootnote}{32}
\setcounter{bookmark@seq@number}{52}
\setcounter{AM@survey}{0}
\setcounter{svg@param@lastpage}{0}
\setcounter{svg@param@currpage}{-1}
\setcounter{subfigure}{0}
\setcounter{lofdepth}{1}
\setcounter{subtable}{0}
\setcounter{lotdepth}{1}
\setcounter{r@tfl@t}{0}
\setcounter{lstnumber}{57}
\setcounter{AlgoLine}{0}
\setcounter{algocfline}{0}
\setcounter{algocfproc}{0}
\setcounter{algocf}{0}
\setcounter{ContinuedFloat}{0}
\setcounter{tabx@nest}{0}
\setcounter{listtotal}{0}
\setcounter{listcount}{0}
\setcounter{liststart}{0}
\setcounter{liststop}{0}
\setcounter{citecount}{0}
\setcounter{citetotal}{0}
\setcounter{multicitecount}{0}
\setcounter{multicitetotal}{0}
\setcounter{instcount}{79}
\setcounter{maxnames}{3}
\setcounter{minnames}{1}
\setcounter{maxitems}{3}
\setcounter{minitems}{1}
\setcounter{citecounter}{0}
\setcounter{savedcitecounter}{0}
\setcounter{uniquelist}{0}
\setcounter{uniquename}{0}
\setcounter{refsection}{0}
\setcounter{refsegment}{0}
\setcounter{maxextratitle}{0}
\setcounter{maxextratitleyear}{0}
\setcounter{maxextradate}{0}
\setcounter{maxextraalpha}{0}
\setcounter{abbrvpenalty}{50}
\setcounter{highnamepenalty}{50}
\setcounter{lownamepenalty}{25}
\setcounter{maxparens}{3}
\setcounter{parenlevel}{0}
\setcounter{mincomprange}{10}
\setcounter{maxcomprange}{100000}
\setcounter{mincompwidth}{1}
\setcounter{afterword}{0}
\setcounter{savedafterword}{0}
\setcounter{annotator}{0}
\setcounter{savedannotator}{0}
\setcounter{author}{0}
\setcounter{savedauthor}{0}
\setcounter{bookauthor}{0}
\setcounter{savedbookauthor}{0}
\setcounter{commentator}{0}
\setcounter{savedcommentator}{0}
\setcounter{editor}{0}
\setcounter{savededitor}{0}
\setcounter{editora}{0}
\setcounter{savededitora}{0}
\setcounter{editorb}{0}
\setcounter{savededitorb}{0}
\setcounter{editorc}{0}
\setcounter{savededitorc}{0}
\setcounter{foreword}{0}
\setcounter{savedforeword}{0}
\setcounter{holder}{0}
\setcounter{savedholder}{0}
\setcounter{introduction}{0}
\setcounter{savedintroduction}{0}
\setcounter{namea}{0}
\setcounter{savednamea}{0}
\setcounter{nameb}{0}
\setcounter{savednameb}{0}
\setcounter{namec}{0}
\setcounter{savednamec}{0}
\setcounter{translator}{0}
\setcounter{savedtranslator}{0}
\setcounter{shortauthor}{0}
\setcounter{savedshortauthor}{0}
\setcounter{shorteditor}{0}
\setcounter{savedshorteditor}{0}
\setcounter{labelname}{0}
\setcounter{savedlabelname}{0}
\setcounter{institution}{0}
\setcounter{savedinstitution}{0}
\setcounter{lista}{0}
\setcounter{savedlista}{0}
\setcounter{listb}{0}
\setcounter{savedlistb}{0}
\setcounter{listc}{0}
\setcounter{savedlistc}{0}
\setcounter{listd}{0}
\setcounter{savedlistd}{0}
\setcounter{liste}{0}
\setcounter{savedliste}{0}
\setcounter{listf}{0}
\setcounter{savedlistf}{0}
\setcounter{location}{0}
\setcounter{savedlocation}{0}
\setcounter{organization}{0}
\setcounter{savedorganization}{0}
\setcounter{origlocation}{0}
\setcounter{savedoriglocation}{0}
\setcounter{origpublisher}{0}
\setcounter{savedorigpublisher}{0}
\setcounter{publisher}{0}
\setcounter{savedpublisher}{0}
\setcounter{language}{0}
\setcounter{savedlanguage}{0}
\setcounter{origlanguage}{0}
\setcounter{savedoriglanguage}{0}
\setcounter{pageref}{0}
\setcounter{savedpageref}{0}
\setcounter{textcitecount}{0}
\setcounter{textcitetotal}{0}
\setcounter{textcitemaxnames}{0}
\setcounter{biburlnumpenalty}{0}
\setcounter{biburlucpenalty}{0}
\setcounter{biburllcpenalty}{0}
\setcounter{smartand}{1}
\setcounter{bbx:relatedcount}{0}
\setcounter{bbx:relatedtotal}{0}
\setcounter{cbx@tempcnta}{0}
\setcounter{cbx@tempcntb}{22}
\setcounter{tw@hyphen@char@num}{0}
\setcounter{section@level}{2}
\setcounter{lstlisting}{38}
\setcounter{totpages}{24}
}
