\relax 
\providecommand\hyper@newdestlabel[2]{}
\providecommand{\transparent@use}[1]{}
\catcode `"\active 
\catcode `<\active 
\catcode `>\active 
\@nameuse{es@quoting}
\providecommand\HyperFirstAtBeginDocument{\AtBeginDocument}
\HyperFirstAtBeginDocument{\ifx\hyper@anchor\@undefined
\global\let\oldcontentsline\contentsline
\gdef\contentsline#1#2#3#4{\oldcontentsline{#1}{#2}{#3}}
\global\let\oldnewlabel\newlabel
\gdef\newlabel#1#2{\newlabelxx{#1}#2}
\gdef\newlabelxx#1#2#3#4#5#6{\oldnewlabel{#1}{{#2}{#3}}}
\AtEndDocument{\ifx\hyper@anchor\@undefined
\let\contentsline\oldcontentsline
\let\newlabel\oldnewlabel
\fi}
\fi}
\global\let\hyper@last\relax 
\gdef\HyperFirstAtBeginDocument#1{#1}
\providecommand\HyField@AuxAddToFields[1]{}
\providecommand\HyField@AuxAddToCoFields[2]{}
\abx@aux@refcontext{nty/global//global/global}
\providecommand \oddpage@label [2]{}
\@writefile{toc}{\boolfalse {citerequest}\boolfalse {citetracker}\boolfalse {pagetracker}\boolfalse {backtracker}\relax }
\@writefile{lof}{\boolfalse {citerequest}\boolfalse {citetracker}\boolfalse {pagetracker}\boolfalse {backtracker}\relax }
\@writefile{lot}{\boolfalse {citerequest}\boolfalse {citetracker}\boolfalse {pagetracker}\boolfalse {backtracker}\relax }
\babel@aux{spanish}{}
\babel@aux{spanish}{}
\babel@aux{spanish}{}
\babel@aux{english}{}
\babel@aux{spanish}{}
\@input{./Agradecimientos.aux}
\@writefile{toc}{\defcounter {refsection}{0}\relax }\@writefile{toc}{\contentsline {chapter}{\'{I}ndice de figuras}{\es@scroman  {xvii}}{section*.7}}
\@writefile{toc}{\defcounter {refsection}{0}\relax }\@writefile{toc}{\contentsline {chapter}{\'{I}ndice de tablas}{\es@scroman  {xix}}{section*.9}}
\@writefile{toc}{\defcounter {refsection}{0}\relax }\@writefile{toc}{\contentsline {chapter}{\IeC {\'I}ndice de listados}{\es@scroman  {xxi}}{section*.11}}
\@input{./Introduccion.aux}
\abx@aux@cite{dislibrary}
\abx@aux@segm{0}{0}{dislibrary}
\abx@aux@segm{0}{0}{dislibrary}
\abx@aux@cite{calvet2001historia}
\abx@aux@segm{0}{0}{calvet2001historia}
\abx@aux@cite{figuerola2004algunas}
\abx@aux@segm{0}{0}{figuerola2004algunas}
\abx@aux@cite{turing}
\abx@aux@segm{0}{0}{turing}
\abx@aux@cite{salton1975vector}
\abx@aux@segm{0}{0}{salton1975vector}
\abx@aux@segm{0}{0}{figuerola2004algunas}
\abx@aux@cite{robertson2004understanding}
\abx@aux@segm{0}{0}{robertson2004understanding}
\abx@aux@cite{bartos}
\abx@aux@segm{0}{0}{bartos}
\abx@aux@cite{sidorov2014soft}
\abx@aux@segm{0}{0}{sidorov2014soft}
\abx@aux@cite{zhang2010understanding}
\abx@aux@segm{0}{0}{zhang2010understanding}
\abx@aux@cite{joulin2016bag}
\abx@aux@segm{0}{0}{joulin2016bag}
\abx@aux@cite{fast}
\abx@aux@segm{0}{0}{fast}
\abx@aux@segm{0}{0}{figuerola2004algunas}
\abx@aux@segm{0}{0}{figuerola2004algunas}
\abx@aux@cite{bishop2006pattern}
\abx@aux@segm{0}{0}{bishop2006pattern}
\abx@aux@cite{fayyad1996kdd}
\abx@aux@segm{0}{0}{fayyad1996kdd}
\abx@aux@segm{0}{0}{figuerola2004algunas}
\abx@aux@cite{freglineal}
\abx@aux@segm{0}{0}{freglineal}
\abx@aux@segm{0}{0}{freglineal}
\abx@aux@segm{0}{0}{freglineal}
\abx@aux@cite{mrous}
\abx@aux@segm{0}{0}{mrous}
\abx@aux@cite{understandingGlove}
\abx@aux@segm{0}{0}{understandingGlove}
\abx@aux@cite{pennington2014glove}
\abx@aux@segm{0}{0}{pennington2014glove}
\abx@aux@cite{rosenblatt1958perceptron}
\abx@aux@segm{0}{0}{rosenblatt1958perceptron}
\abx@aux@cite{haykin1994neural}
\abx@aux@segm{0}{0}{haykin1994neural}
\abx@aux@segm{0}{0}{haykin1994neural}
\abx@aux@cite{fredesneuronales}
\abx@aux@segm{0}{0}{fredesneuronales}
\abx@aux@cite{minsky2017perceptrons}
\abx@aux@segm{0}{0}{minsky2017perceptrons}
\abx@aux@cite{rumelhart1988learning}
\abx@aux@segm{0}{0}{rumelhart1988learning}
\abx@aux@cite{article_red}
\abx@aux@segm{0}{0}{article_red}
\abx@aux@segm{0}{0}{article_red}
\abx@aux@cite{mfigueres}
\abx@aux@segm{0}{0}{mfigueres}
\abx@aux@cite{understandingCNN}
\abx@aux@segm{0}{0}{understandingCNN}
\abx@aux@segm{0}{0}{understandingCNN}
\abx@aux@segm{0}{0}{understandingCNN}
\abx@aux@segm{0}{0}{understandingCNN}
\abx@aux@segm{0}{0}{understandingCNN}
\abx@aux@segm{0}{0}{understandingCNN}
\abx@aux@cite{zhang2015sensitivity}
\abx@aux@segm{0}{0}{zhang2015sensitivity}
\abx@aux@segm{0}{0}{zhang2015sensitivity}
\abx@aux@cite{dcalvo}
\abx@aux@segm{0}{0}{dcalvo}
\abx@aux@cite{crisOlah}
\abx@aux@segm{0}{0}{crisOlah}
\abx@aux@segm{0}{0}{crisOlah}
\abx@aux@segm{0}{0}{crisOlah}
\abx@aux@segm{0}{0}{crisOlah}
\abx@aux@cite{hochreiter2001gradient}
\abx@aux@segm{0}{0}{hochreiter2001gradient}
\abx@aux@segm{0}{0}{dcalvo}
\abx@aux@cite{hochreiter1997long}
\abx@aux@segm{0}{0}{hochreiter1997long}
\abx@aux@segm{0}{0}{crisOlah}
\abx@aux@segm{0}{0}{dcalvo}
\abx@aux@cite{nimeshSinha}
\abx@aux@segm{0}{0}{nimeshSinha}
\abx@aux@segm{0}{0}{crisOlah}
\abx@aux@segm{0}{0}{nimeshSinha}
\abx@aux@segm{0}{0}{crisOlah}
\abx@aux@segm{0}{0}{nimeshSinha}
\abx@aux@segm{0}{0}{crisOlah}
\abx@aux@cite{lai2015recurrent}
\abx@aux@segm{0}{0}{lai2015recurrent}
\abx@aux@cite{zhou2015c}
\abx@aux@segm{0}{0}{zhou2015c}
\abx@aux@cite{zhou2016text}
\abx@aux@segm{0}{0}{zhou2016text}
\abx@aux@cite{Peters:2018}
\abx@aux@segm{0}{0}{Peters:2018}
\abx@aux@cite{devlin2018bert}
\abx@aux@segm{0}{0}{devlin2018bert}
\@input{./Objetivo.aux}
\@input{./Metodologia.aux}
\abx@aux@cite{schwaber2002agile}
\abx@aux@segm{0}{0}{schwaber2002agile}
\abx@aux@cite{alvarez2016python}
\abx@aux@segm{0}{0}{alvarez2016python}
\abx@aux@cite{tensorflow2015-whitepaper}
\abx@aux@segm{0}{0}{tensorflow2015-whitepaper}
\abx@aux@cite{chollet2015keras}
\abx@aux@segm{0}{0}{chollet2015keras}
\abx@aux@cite{django}
\abx@aux@segm{0}{0}{django}
\abx@aux@cite{git}
\abx@aux@segm{0}{0}{git}
\abx@aux@segm{0}{0}{git}
\abx@aux@segm{0}{0}{git}
\abx@aux@cite{gross2003kanban}
\abx@aux@segm{0}{0}{gross2003kanban}
\abx@aux@cite{kanban}
\abx@aux@segm{0}{0}{kanban}
\abx@aux@segm{0}{0}{kanban}
\@input{./Resultados.aux}
\abx@aux@segm{0}{0}{django}
\abx@aux@cite{mvt}
\abx@aux@segm{0}{0}{mvt}
\abx@aux@segm{0}{0}{mvt}
\abx@aux@segm{0}{0}{mvt}
\abx@aux@segm{0}{0}{django}
\abx@aux@segm{0}{0}{django}
\@input{./Conclusiones.aux}
\@input{./AnexoB.aux}
\@input{./AnexoC.aux}
\@writefile{toc}{\defcounter {refsection}{0}\relax }\@writefile{toc}{\contentsline {chapter}{Bibliograf\IeC {\'\i }a}{85}{section*.126}}
\abx@aux@number{79}{tensorflow2015-whitepaper}{0}{nty/global//global/global}{1}
\abx@aux@number{80}{article_red}{0}{nty/global//global/global}{2}
\abx@aux@number{81}{alvarez2016python}{0}{nty/global//global/global}{3}
\abx@aux@number{82}{bishop2006pattern}{0}{nty/global//global/global}{4}
\abx@aux@number{83}{understandingCNN}{0}{nty/global//global/global}{5}
\abx@aux@number{84}{calvet2001historia}{0}{nty/global//global/global}{6}
\abx@aux@number{85}{dcalvo}{0}{nty/global//global/global}{7}
\abx@aux@number{86}{git}{0}{nty/global//global/global}{8}
\abx@aux@number{87}{chollet2015keras}{0}{nty/global//global/global}{9}
\abx@aux@number{88}{mvt}{0}{nty/global//global/global}{10}
\abx@aux@number{89}{devlin2018bert}{0}{nty/global//global/global}{11}
\abx@aux@number{90}{fast}{0}{nty/global//global/global}{12}
\abx@aux@number{91}{fayyad1996kdd}{0}{nty/global//global/global}{13}
\abx@aux@number{92}{mfigueres}{0}{nty/global//global/global}{14}
\abx@aux@number{93}{figuerola2004algunas}{0}{nty/global//global/global}{15}
\abx@aux@number{94}{bartos}{0}{nty/global//global/global}{16}
\abx@aux@number{95}{gross2003kanban}{0}{nty/global//global/global}{17}
\abx@aux@number{96}{fredesneuronales}{0}{nty/global//global/global}{18}
\abx@aux@number{97}{haykin1994neural}{0}{nty/global//global/global}{19}
\abx@aux@number{98}{hochreiter1997long}{0}{nty/global//global/global}{20}
\abx@aux@number{99}{hochreiter2001gradient}{0}{nty/global//global/global}{21}
\abx@aux@number{100}{django}{0}{nty/global//global/global}{22}
\abx@aux@number{101}{joulin2016bag}{0}{nty/global//global/global}{23}
\abx@aux@number{102}{lai2015recurrent}{0}{nty/global//global/global}{24}
\abx@aux@number{103}{freglineal}{0}{nty/global//global/global}{25}
\abx@aux@number{104}{minsky2017perceptrons}{0}{nty/global//global/global}{26}
\abx@aux@number{105}{crisOlah}{0}{nty/global//global/global}{27}
\abx@aux@number{106}{dislibrary}{0}{nty/global//global/global}{28}
\abx@aux@number{107}{pennington2014glove}{0}{nty/global//global/global}{29}
\abx@aux@number{108}{Peters:2018}{0}{nty/global//global/global}{30}
\abx@aux@number{109}{robertson2004understanding}{0}{nty/global//global/global}{31}
\abx@aux@number{110}{rosenblatt1958perceptron}{0}{nty/global//global/global}{32}
\abx@aux@number{111}{mrous}{0}{nty/global//global/global}{33}
\abx@aux@number{112}{rumelhart1988learning}{0}{nty/global//global/global}{34}
\abx@aux@number{113}{salton1975vector}{0}{nty/global//global/global}{35}
\abx@aux@number{114}{schwaber2002agile}{0}{nty/global//global/global}{36}
\abx@aux@number{115}{sidorov2014soft}{0}{nty/global//global/global}{37}
\abx@aux@number{116}{nimeshSinha}{0}{nty/global//global/global}{38}
\abx@aux@number{117}{turing}{0}{nty/global//global/global}{39}
\abx@aux@number{118}{kanban}{0}{nty/global//global/global}{40}
\abx@aux@number{119}{understandingGlove}{0}{nty/global//global/global}{41}
\abx@aux@number{120}{shiunderstand}{0}{nty/global//global/global}{42}
\abx@aux@number{121}{zhang2010understanding}{0}{nty/global//global/global}{43}
\abx@aux@number{122}{zhang2015sensitivity}{0}{nty/global//global/global}{44}
\abx@aux@number{123}{zhou2015c}{0}{nty/global//global/global}{45}
\abx@aux@number{124}{zhou2016text}{0}{nty/global//global/global}{46}
\abx@aux@refcontextdefaultsdone
\abx@aux@defaultrefcontext{0}{tensorflow2015-whitepaper}{nty/global//global/global}
\abx@aux@defaultrefcontext{0}{article_red}{nty/global//global/global}
\abx@aux@defaultrefcontext{0}{alvarez2016python}{nty/global//global/global}
\abx@aux@defaultrefcontext{0}{bishop2006pattern}{nty/global//global/global}
\abx@aux@defaultrefcontext{0}{understandingCNN}{nty/global//global/global}
\abx@aux@defaultrefcontext{0}{calvet2001historia}{nty/global//global/global}
\abx@aux@defaultrefcontext{0}{dcalvo}{nty/global//global/global}
\abx@aux@defaultrefcontext{0}{git}{nty/global//global/global}
\abx@aux@defaultrefcontext{0}{chollet2015keras}{nty/global//global/global}
\abx@aux@defaultrefcontext{0}{mvt}{nty/global//global/global}
\abx@aux@defaultrefcontext{0}{devlin2018bert}{nty/global//global/global}
\abx@aux@defaultrefcontext{0}{fast}{nty/global//global/global}
\abx@aux@defaultrefcontext{0}{fayyad1996kdd}{nty/global//global/global}
\abx@aux@defaultrefcontext{0}{mfigueres}{nty/global//global/global}
\abx@aux@defaultrefcontext{0}{figuerola2004algunas}{nty/global//global/global}
\abx@aux@defaultrefcontext{0}{bartos}{nty/global//global/global}
\abx@aux@defaultrefcontext{0}{gross2003kanban}{nty/global//global/global}
\abx@aux@defaultrefcontext{0}{fredesneuronales}{nty/global//global/global}
\abx@aux@defaultrefcontext{0}{haykin1994neural}{nty/global//global/global}
\abx@aux@defaultrefcontext{0}{hochreiter1997long}{nty/global//global/global}
\abx@aux@defaultrefcontext{0}{hochreiter2001gradient}{nty/global//global/global}
\abx@aux@defaultrefcontext{0}{django}{nty/global//global/global}
\abx@aux@defaultrefcontext{0}{joulin2016bag}{nty/global//global/global}
\abx@aux@defaultrefcontext{0}{lai2015recurrent}{nty/global//global/global}
\abx@aux@defaultrefcontext{0}{freglineal}{nty/global//global/global}
\abx@aux@defaultrefcontext{0}{minsky2017perceptrons}{nty/global//global/global}
\abx@aux@defaultrefcontext{0}{crisOlah}{nty/global//global/global}
\abx@aux@defaultrefcontext{0}{dislibrary}{nty/global//global/global}
\abx@aux@defaultrefcontext{0}{pennington2014glove}{nty/global//global/global}
\abx@aux@defaultrefcontext{0}{Peters:2018}{nty/global//global/global}
\abx@aux@defaultrefcontext{0}{robertson2004understanding}{nty/global//global/global}
\abx@aux@defaultrefcontext{0}{rosenblatt1958perceptron}{nty/global//global/global}
\abx@aux@defaultrefcontext{0}{mrous}{nty/global//global/global}
\abx@aux@defaultrefcontext{0}{rumelhart1988learning}{nty/global//global/global}
\abx@aux@defaultrefcontext{0}{salton1975vector}{nty/global//global/global}
\abx@aux@defaultrefcontext{0}{schwaber2002agile}{nty/global//global/global}
\abx@aux@defaultrefcontext{0}{sidorov2014soft}{nty/global//global/global}
\abx@aux@defaultrefcontext{0}{nimeshSinha}{nty/global//global/global}
\abx@aux@defaultrefcontext{0}{turing}{nty/global//global/global}
\abx@aux@defaultrefcontext{0}{kanban}{nty/global//global/global}
\abx@aux@defaultrefcontext{0}{understandingGlove}{nty/global//global/global}
\abx@aux@defaultrefcontext{0}{shiunderstand}{nty/global//global/global}
\abx@aux@defaultrefcontext{0}{zhang2010understanding}{nty/global//global/global}
\abx@aux@defaultrefcontext{0}{zhang2015sensitivity}{nty/global//global/global}
\abx@aux@defaultrefcontext{0}{zhou2015c}{nty/global//global/global}
\abx@aux@defaultrefcontext{0}{zhou2016text}{nty/global//global/global}
